{
  "artifactGenerations" : [ ],
  "artifactId" : "test",
  "groupId" : "dace11765f478c1b3b0d2d2506b69f6d04993a0a0773375a937d32b7a01327cc",
  "metamodelDependencies" : [ ],
  "projectDependencies" : [ ],
  "projectId" : "48066492",
  "projectStructureVersion" : {
    "extensionVersion" : 2,
    "version" : 12
  }
}